Working with Historical Climate Data
…
# find the station ID (CHELSEA QC 5585)
ec_climate_search_locations("chelsea", timeframe = "daily", year = 2015)
#> Search results for ec_climate_search_locations(
#>   query = "chelsea"
#>   timeframe = "daily"
#>   year = 2015
#> ) 
#> [1] CHELSEA QC 5585 (daily 1927-2017)

# load the data
ec_climate_data(
  "CHELSEA QC 5585", timeframe = "daily", 
  start = "2015-01-01", end = "2015-12-31"
)
#> # A tibble: 365 x 29
#>    dataset location  year month   day date       data_quality max_temp_c
#>    <chr>   <chr>    <int> <int> <int> <date>     <chr>             <dbl>
#>  1 ec_cli… CHELSEA…  2015     1     1 2015-01-01 <NA>               NA  
#>  2 ec_cli… CHELSEA…  2015     1     2 2015-01-02 <NA>               NA  
#>  3 ec_cli… CHELSEA…  2015     1     3 2015-01-03 <NA>               NA  
#>  4 ec_cli… CHELSEA…  2015     1     4 2015-01-04 <NA>               NA  
#>  5 ec_cli… CHELSEA…  2015     1     5 2015-01-05 <NA>              -16.5
#>  6 ec_cli… CHELSEA…  2015     1     6 2015-01-06 <NA>               NA  
#>  7 ec_cli… CHELSEA…  2015     1     7 2015-01-07 <NA>               NA  
#>  8 ec_cli… CHELSEA…  2015     1     8 2015-01-08 <NA>              -10.5
#>  9 ec_cli… CHELSEA…  2015     1     9 2015-01-09 <NA>               -6.5
#> 10 ec_cli… CHELSEA…  2015     1    10 2015-01-10 <NA>               NA  
#> # … with 355 more rows, and 21 more variables: max_temp_flag <chr>,
#> #   min_temp_c <dbl>, min_temp_flag <chr>, mean_temp_c <dbl>,
#> #   mean_temp_flag <chr>, heat_deg_days_c <dbl>, heat_deg_days_flag <chr>,
#> #   cool_deg_days_c <dbl>, cool_deg_days_flag <chr>, total_rain_mm <dbl>,
#> #   total_rain_flag <chr>, total_snow_cm <dbl>, total_snow_flag <chr>,
#> #   total_precip_mm <dbl>, total_precip_flag <chr>, snow_on_grnd_cm <dbl>,
#> #   snow_on_grnd_flag <chr>, dir_of_max_gust_10s_deg <dbl>,
#> #   dir_of_max_gust_flag <chr>, spd_of_max_gust_km_h <dbl>,
#> #   spd_of_max_gust_flag <chr>
…
This function can download a whole lot of data, so it’s worth doing a little math before you overwhelm your computer with data that it can’t load into memory. As an example, I tested this function by downloading daily data for every station in Nova Scotia between 1900 and 2016, which took 2 hours and resulted in a 1.3 gigabyte data frame. If you’re trying to do something at this scale, have a look at ec_climate_data_base() to extract data from each file without loading the whole thing into memory.

Dates and times

The worst thing about historical climate data from Environment Canada is that the dates and times of hourly data are reported in local standard time. This makes it dubious to compare hourly data from one location to another. Because of this, the hourly output from Environment Canada is confusing (in my opinion), and so the hourly output from ec_climate_data() includes both the UTC time and the local time (in addition to the EC “local standard time”). These two times will disagree during daylight savings time, but the moment in time represented by both date_time_* columns is correct. To see these times in another timezone, use lubridate::with_tz() to change the tzone attribute. If you must insist on using “local standard time”, you can use a version of date + time_lst, but you may have to pretend that LST is UTC (I haven’t found an easy way to use a UTC offset as a timezone in R).

library(dplyr)

ec_climate_data(
  "KENTVILLE CDA CS NS 27141", timeframe = "hourly", 
  start = "1999-07-01", end = "1999-07-31"
) %>%
  select(date, time_lst, date_time_utc, date_time_local)
#> # A tibble: 744 x 4
#>    date       time_lst date_time_utc       date_time_local    
#>    <date>     <drtn>   <dttm>              <dttm>             
#>  1 1999-07-01 00:00    1999-07-01 04:00:00 1999-07-01 01:00:00
#>  2 1999-07-01 01:00    1999-07-01 05:00:00 1999-07-01 02:00:00
#>  3 1999-07-01 02:00    1999-07-01 06:00:00 1999-07-01 03:00:00
#>  4 1999-07-01 03:00    1999-07-01 07:00:00 1999-07-01 04:00:00
#>  5 1999-07-01 04:00    1999-07-01 08:00:00 1999-07-01 05:00:00
#>  6 1999-07-01 05:00    1999-07-01 09:00:00 1999-07-01 06:00:00
#>  7 1999-07-01 06:00    1999-07-01 10:00:00 1999-07-01 07:00:00
#>  8 1999-07-01 07:00    1999-07-01 11:00:00 1999-07-01 08:00:00
#>  9 1999-07-01 08:00    1999-07-01 12:00:00 1999-07-01 09:00:00
#> 10 1999-07-01 09:00    1999-07-01 13:00:00 1999-07-01 10:00:00
#> # … with 734 more rows
…
The format for this output is from the readr package, and it may take a little sleuthing to figure out that the 28th column is, in fact, the spd_of_max_gust_km_h column (I did so using colnames(df)[28]). If these values are important to your analysis, you can circumvent the numeric parsing step using the value_parser argument.

ec_climate_data(
  "KENTVILLE CDA CS NS 27141", timeframe = "daily",
  start = "2015-11-01", end = "2015-11-30",
  value_parser = readr::parse_character
) %>%
  select(date, spd_of_max_gust_km_h, spd_of_max_gust_flag)
#> # A tibble: 30 x 3
#>    date       spd_of_max_gust_km_h spd_of_max_gust_flag
#>    <date>     <chr>                <chr>               
#>  1 2015-11-01 35                   <NA>                
#>  2 2015-11-02 43                   <NA>                
#>  3 2015-11-03 <31                  <NA>                
#>  4 2015-11-04 <31                  <NA>                
#>  5 2015-11-05 <31                  <NA>                
#>  6 2015-11-06 <31                  <NA>                
#>  7 2015-11-07 50                   <NA>                
#>  8 2015-11-08 54                   <NA>                
#>  9 2015-11-09 46                   <NA>                
#> 10 2015-11-10 <31                  <NA>                
#> # … with 20 more rows
…
